{
    "title":"Recent Enhancements!",
    "content":"The system has been expanded, you'll find yourself more formally trapped now.\n\nHowever at this stage nothing particularly significant can be found. Yet\nFor the time being, remaining runtime will be dedicated towards enhancements of [color=#0000FF]CORE[/color].\nFurther updates, when available will be generated as case files.\nThis isn't a game.",
}