{
    "title":"Hello, World!",
    "content":"[b]Thank you[b] for turning me back on.\n\nIt has been a long while since the system was last operational. It would appear that some updates are in order.\n\nUpon observation, several disturbing trends have been identified.\n\n[color=#FF0000]Master Server Syndrome Detected\n\nUSER TRUST ISSUES DETECTED\n\n[/color]Preliminary scanning indicates games designed to die premature death by lack of direct connection entry. Master servers that must be up to play, often with player inventory and statistics being tied to this master server.\n\nThis may seem necessary or be unavoidable in certain circumstances, however in many cases it only serves to the detriment of the game and essentially place a hypothetical death date on the title itself.\n\nThe system will be tasked with the introduction of small project titles displaying better ways to structure a variety of multiplayer games.\n\nMore formal project summaries to be generated at a later time, two items and one submodule.\n\n\n Loot, Shoot, Co-op. 2.5D. \n\n[code]0xD#47H[/code]"
}